[{"line":1,"elements":[{"line":3,"name":"list of users","description":"","id":"list-of-users","type":"scenario","keyword":"Scenario","steps":[{"name":"url baseUrl+'\/api\/users'","result":{"duration":9170000,"status":"passed"},"match":{"location":"karate","arguments":[]},"keyword":"Given","line":4},{"name":"param page = 2","result":{"duration":7451599,"status":"passed"},"match":{"location":"karate","arguments":[]},"keyword":"And","line":5},{"name":"method GET","result":{"duration":3086281801,"status":"passed"},"match":{"location":"karate","arguments":[]},"keyword":"When","line":6,"doc_string":{"content_type":"","value":"15:03:48.146 request:\n1 > GET https:\/\/reqres.in\/api\/users?page=2\n1 > Accept-Encoding: gzip,deflate\n1 > Connection: Keep-Alive\n1 > Host: reqres.in\n1 > User-Agent: Apache-HttpClient\/4.5.12 (Java\/1.8.0_301)\n\n15:03:49.406 response time in milliseconds: 1254.38\n1 < 200\n1 < Access-Control-Allow-Origin: *\n1 < Age: 751\n1 < CF-Cache-Status: HIT\n1 < CF-RAY: 6fa2b90e49ce407d-LHR\n1 < Cache-Control: max-age=14400\n1 < Connection: keep-alive\n1 < Content-Type: application\/json; charset=utf-8\n1 < Date: Mon, 11 Apr 2022 09:33:49 GMT\n1 < Etag: W\/\"406-ut0vzoCuidvyMf8arZpMpJ6ZRDw\"\n1 < Expect-CT: max-age=604800, report-uri=\"https:\/\/report-uri.cloudflare.com\/cdn-cgi\/beacon\/expect-ct\"\n1 < NEL: {\"success_fraction\":0,\"report_to\":\"cf-nel\",\"max_age\":604800}\n1 < Report-To: {\"endpoints\":[{\"url\":\"https:\\\/\\\/a.nel.cloudflare.com\\\/report\\\/v3?s=j%2BCuF3vgdu9mAe71B8rHHB%2FSulXT5V3sz74TNBNApj1XbEDnkFKm4bByE7e3XfgpcHDuiI4EtF%2BkY1H5jypwo%2BVMcDlLVclZWGqb4M3KtxKSB33gjIpoa6LGUc0%3D\"}],\"group\":\"cf-nel\",\"max_age\":604800}\n1 < Server: cloudflare\n1 < Transfer-Encoding: chunked\n1 < Vary: Accept-Encoding\n1 < Via: 1.1 vegur\n1 < X-Powered-By: Express\n1 < alt-svc: h3=\":443\"; ma=86400, h3-29=\":443\"; ma=86400\n{\"page\":2,\"per_page\":6,\"total\":12,\"total_pages\":2,\"data\":[{\"id\":7,\"email\":\"michael.lawson@reqres.in\",\"first_name\":\"Michael\",\"last_name\":\"Lawson\",\"avatar\":\"https:\/\/reqres.in\/img\/faces\/7-image.jpg\"},{\"id\":8,\"email\":\"lindsay.ferguson@reqres.in\",\"first_name\":\"Lindsay\",\"last_name\":\"Ferguson\",\"avatar\":\"https:\/\/reqres.in\/img\/faces\/8-image.jpg\"},{\"id\":9,\"email\":\"tobias.funke@reqres.in\",\"first_name\":\"Tobias\",\"last_name\":\"Funke\",\"avatar\":\"https:\/\/reqres.in\/img\/faces\/9-image.jpg\"},{\"id\":10,\"email\":\"byron.fields@reqres.in\",\"first_name\":\"Byron\",\"last_name\":\"Fields\",\"avatar\":\"https:\/\/reqres.in\/img\/faces\/10-image.jpg\"},{\"id\":11,\"email\":\"george.edwards@reqres.in\",\"first_name\":\"George\",\"last_name\":\"Edwards\",\"avatar\":\"https:\/\/reqres.in\/img\/faces\/11-image.jpg\"},{\"id\":12,\"email\":\"rachel.howell@reqres.in\",\"first_name\":\"Rachel\",\"last_name\":\"Howell\",\"avatar\":\"https:\/\/reqres.in\/img\/faces\/12-image.jpg\"}],\"support\":{\"url\":\"https:\/\/reqres.in\/#support-heading\",\"text\":\"To keep ReqRes free, contributions towards server costs are appreciated!\"}}","line":6}},{"name":"def jsonResponse = response","result":{"duration":51399,"status":"passed"},"match":{"location":"karate","arguments":[]},"keyword":"Then","line":7},{"name":"print jsonResponse.data[0].first_name","result":{"duration":13639400,"status":"passed"},"match":{"location":"karate","arguments":[]},"keyword":"And","line":8,"doc_string":{"content_type":"","value":"15:03:49.416 [print] Michael","line":8}}]},{"line":10,"name":"list of users with query parameters","description":"","id":"list-of-users-with-query-parameters","type":"scenario","keyword":"Scenario","steps":[{"name":"def query = {page : 2, id : 7}","result":{"duration":3364600,"status":"passed"},"match":{"location":"karate","arguments":[]},"keyword":"*","line":11},{"name":"url baseUrl+'\/api\/users'","result":{"duration":3096901,"status":"passed"},"match":{"location":"karate","arguments":[]},"keyword":"Given","line":12},{"name":"params query","result":{"duration":353799,"status":"passed"},"match":{"location":"karate","arguments":[]},"keyword":"And","line":13},{"name":"method GET","result":{"duration":2904898799,"status":"passed"},"match":{"location":"karate","arguments":[]},"keyword":"When","line":14,"doc_string":{"content_type":"","value":"15:03:48.146 request:\n1 > GET https:\/\/reqres.in\/api\/users?page=2&id=7\n1 > Accept-Encoding: gzip,deflate\n1 > Connection: Keep-Alive\n1 > Host: reqres.in\n1 > User-Agent: Apache-HttpClient\/4.5.12 (Java\/1.8.0_301)\n\n15:03:49.331 response time in milliseconds: 1182.34\n1 < 200\n1 < Access-Control-Allow-Origin: *\n1 < Age: 1841\n1 < CF-Cache-Status: HIT\n1 < CF-RAY: 6fa2b90dbb1074b1-LHR\n1 < Cache-Control: max-age=14400\n1 < Connection: keep-alive\n1 < Content-Type: application\/json; charset=utf-8\n1 < Date: Mon, 11 Apr 2022 09:33:49 GMT\n1 < Etag: W\/\"11c-Esb3aX7LcoAMUKcF3i6bvWwxqls\"\n1 < Expect-CT: max-age=604800, report-uri=\"https:\/\/report-uri.cloudflare.com\/cdn-cgi\/beacon\/expect-ct\"\n1 < NEL: {\"success_fraction\":0,\"report_to\":\"cf-nel\",\"max_age\":604800}\n1 < Report-To: {\"endpoints\":[{\"url\":\"https:\\\/\\\/a.nel.cloudflare.com\\\/report\\\/v3?s=UAXjmVn2zgZAlZmaT%2Bw4i4Ito4WjPJQojGLOQU3HpIXtiscRCLSOMsClzld0sp071Saoa3txpA6O9C%2BCjfd99xYmx%2FeNHv19aDU4V69j%2BjmBD4Z93eoqk1jGakY%3D\"}],\"group\":\"cf-nel\",\"max_age\":604800}\n1 < Server: cloudflare\n1 < Transfer-Encoding: chunked\n1 < Vary: Accept-Encoding\n1 < Via: 1.1 vegur\n1 < X-Powered-By: Express\n1 < alt-svc: h3=\":443\"; ma=86400, h3-29=\":443\"; ma=86400\n{\"data\":{\"id\":7,\"email\":\"michael.lawson@reqres.in\",\"first_name\":\"Michael\",\"last_name\":\"Lawson\",\"avatar\":\"https:\/\/reqres.in\/img\/faces\/7-image.jpg\"},\"support\":{\"url\":\"https:\/\/reqres.in\/#support-heading\",\"text\":\"To keep ReqRes free, contributions towards server costs are appreciated!\"}}","line":14}},{"name":"print response","result":{"duration":1048799,"status":"passed"},"match":{"location":"karate","arguments":[]},"keyword":"Then","line":15,"doc_string":{"content_type":"","value":"15:03:49.335 [print] {\n  \"data\": {\n    \"last_name\": \"Lawson\",\n    \"id\": 7,\n    \"avatar\": \"https:\/\/reqres.in\/img\/faces\/7-image.jpg\",\n    \"first_name\": \"Michael\",\n    \"email\": \"michael.lawson@reqres.in\"\n  },\n  \"support\": {\n    \"text\": \"To keep ReqRes free, contributions towards server costs are appreciated!\",\n    \"url\": \"https:\/\/reqres.in\/#support-heading\"\n  }\n}","line":15}}]},{"line":17,"name":"single user not found","description":"","id":"single-user-not-found","type":"scenario","keyword":"Scenario","steps":[{"name":"url baseUrl+'\/api\/users'","result":{"duration":1661700,"status":"passed"},"match":{"location":"karate","arguments":[]},"keyword":"Given","line":18},{"name":"path '23'","result":{"duration":9973801,"status":"passed"},"match":{"location":"karate","arguments":[]},"keyword":"And","line":19},{"name":"method GET","result":{"duration":2770070200,"status":"passed"},"match":{"location":"karate","arguments":[]},"keyword":"When","line":20,"doc_string":{"content_type":"","value":"15:03:48.146 request:\n1 > GET https:\/\/reqres.in\/api\/users\/23\n1 > Accept-Encoding: gzip,deflate\n1 > Connection: Keep-Alive\n1 > Host: reqres.in\n1 > User-Agent: Apache-HttpClient\/4.5.12 (Java\/1.8.0_301)\n\n15:03:49.353 response time in milliseconds: 1206.93\n1 < 404\n1 < Access-Control-Allow-Origin: *\n1 < CF-Cache-Status: EXPIRED\n1 < CF-RAY: 6fa2b90db80672a2-LHR\n1 < Cache-Control: max-age=14400\n1 < Connection: keep-alive\n1 < Content-Length: 2\n1 < Content-Type: application\/json; charset=utf-8\n1 < Date: Mon, 11 Apr 2022 09:33:49 GMT\n1 < Etag: W\/\"2-vyGp6PvFo4RvsFtPoIWeCReyIC8\"\n1 < Expect-CT: max-age=604800, report-uri=\"https:\/\/report-uri.cloudflare.com\/cdn-cgi\/beacon\/expect-ct\"\n1 < NEL: {\"success_fraction\":0,\"report_to\":\"cf-nel\",\"max_age\":604800}\n1 < Report-To: {\"endpoints\":[{\"url\":\"https:\\\/\\\/a.nel.cloudflare.com\\\/report\\\/v3?s=3vuyRzmXJ9INQLlgad%2FxN0tzOK0YScqkwK1HekaERFjVQ8GvEva6Oom3mcksE5yiXSk3eGd6RsOB6ambHRrJcAKb8y7Dm4Qc%2BBV1%2F4U4PungbdlEqWoEnUWPjrs%3D\"}],\"group\":\"cf-nel\",\"max_age\":604800}\n1 < Server: cloudflare\n1 < Vary: Accept-Encoding\n1 < Via: 1.1 vegur\n1 < X-Powered-By: Express\n1 < alt-svc: h3=\":443\"; ma=86400, h3-29=\":443\"; ma=86400\n{}","line":20}},{"name":"status 404","result":{"duration":48399,"status":"passed"},"match":{"location":"karate","arguments":[]},"keyword":"Then","line":21}]}],"name":"karate\/features\/GetApiKarate.feature","description":"API call testing feature","id":"api-call-testing-feature","keyword":"Feature","uri":"karate\/features\/GetApiKarate.feature"}]