[{"line":1,"elements":[{"line":3,"name":"list of users","description":"","id":"list-of-users","type":"scenario","keyword":"Scenario","steps":[{"name":"url baseUrl+'\/api\/users'","result":{"duration":6687300,"status":"passed"},"match":{"location":"karate","arguments":[]},"keyword":"Given","line":4},{"name":"param page = 2","result":{"duration":5852400,"status":"passed"},"match":{"location":"karate","arguments":[]},"keyword":"And","line":5},{"name":"method GET","result":{"duration":3258925900,"status":"passed"},"match":{"location":"karate","arguments":[]},"keyword":"When","line":6,"doc_string":{"content_type":"","value":"19:07:59.665 request:\n1 > GET https:\/\/reqres.in\/api\/users?page=2\n1 > Accept-Encoding: gzip,deflate\n1 > Connection: Keep-Alive\n1 > Host: reqres.in\n1 > User-Agent: Apache-HttpClient\/4.5.12 (Java\/1.8.0_301)\n\n19:08:01.597 response time in milliseconds: 1923.57\n1 < 200\n1 < Access-Control-Allow-Origin: *\n1 < Age: 2228\n1 < CF-Cache-Status: HIT\n1 < CF-RAY: 6f8b66bd6b9a7744-LHR\n1 < Cache-Control: max-age=14400\n1 < Connection: keep-alive\n1 < Content-Type: application\/json; charset=utf-8\n1 < Date: Fri, 08 Apr 2022 13:38:05 GMT\n1 < Etag: W\/\"406-ut0vzoCuidvyMf8arZpMpJ6ZRDw\"\n1 < Expect-CT: max-age=604800, report-uri=\"https:\/\/report-uri.cloudflare.com\/cdn-cgi\/beacon\/expect-ct\"\n1 < NEL: {\"success_fraction\":0,\"report_to\":\"cf-nel\",\"max_age\":604800}\n1 < Report-To: {\"endpoints\":[{\"url\":\"https:\\\/\\\/a.nel.cloudflare.com\\\/report\\\/v3?s=VH%2BHNZBUCdGLwJjBL4flj9fbnD4s5w6uY6QLazbzRsHdTRxZbUNr1Y9uw%2FQX1TfN4%2Fzh1LDu7Jq%2B8BYD6knIuMyh%2BECIR694l5da13XSfcNU8NQB7HltCtsEAvc%3D\"}],\"group\":\"cf-nel\",\"max_age\":604800}\n1 < Server: cloudflare\n1 < Transfer-Encoding: chunked\n1 < Vary: Accept-Encoding\n1 < Via: 1.1 vegur\n1 < X-Powered-By: Express\n1 < alt-svc: h3=\":443\"; ma=86400, h3-29=\":443\"; ma=86400\n{\"page\":2,\"per_page\":6,\"total\":12,\"total_pages\":2,\"data\":[{\"id\":7,\"email\":\"michael.lawson@reqres.in\",\"first_name\":\"Michael\",\"last_name\":\"Lawson\",\"avatar\":\"https:\/\/reqres.in\/img\/faces\/7-image.jpg\"},{\"id\":8,\"email\":\"lindsay.ferguson@reqres.in\",\"first_name\":\"Lindsay\",\"last_name\":\"Ferguson\",\"avatar\":\"https:\/\/reqres.in\/img\/faces\/8-image.jpg\"},{\"id\":9,\"email\":\"tobias.funke@reqres.in\",\"first_name\":\"Tobias\",\"last_name\":\"Funke\",\"avatar\":\"https:\/\/reqres.in\/img\/faces\/9-image.jpg\"},{\"id\":10,\"email\":\"byron.fields@reqres.in\",\"first_name\":\"Byron\",\"last_name\":\"Fields\",\"avatar\":\"https:\/\/reqres.in\/img\/faces\/10-image.jpg\"},{\"id\":11,\"email\":\"george.edwards@reqres.in\",\"first_name\":\"George\",\"last_name\":\"Edwards\",\"avatar\":\"https:\/\/reqres.in\/img\/faces\/11-image.jpg\"},{\"id\":12,\"email\":\"rachel.howell@reqres.in\",\"first_name\":\"Rachel\",\"last_name\":\"Howell\",\"avatar\":\"https:\/\/reqres.in\/img\/faces\/12-image.jpg\"}],\"support\":{\"url\":\"https:\/\/reqres.in\/#support-heading\",\"text\":\"To keep ReqRes free, contributions towards server costs are appreciated!\"}}","line":6}},{"name":"def jsonResponse = response","result":{"duration":187300,"status":"passed"},"match":{"location":"karate","arguments":[]},"keyword":"Then","line":7},{"name":"print jsonResponse.data[0].first_name","result":{"duration":39702600,"status":"passed"},"match":{"location":"karate","arguments":[]},"keyword":"And","line":8,"doc_string":{"content_type":"","value":"19:08:01.645 [print] Michael","line":8}}]},{"line":10,"name":"list of users with query parameters","description":"","id":"list-of-users-with-query-parameters","type":"scenario","keyword":"Scenario","steps":[{"name":"def query = {page : 2, id : 7}","result":{"duration":592400,"status":"passed"},"match":{"location":"karate","arguments":[]},"keyword":"*","line":11},{"name":"url baseUrl+'\/api\/users'","result":{"duration":830300,"status":"passed"},"match":{"location":"karate","arguments":[]},"keyword":"Given","line":12},{"name":"params query","result":{"duration":367200,"status":"passed"},"match":{"location":"karate","arguments":[]},"keyword":"And","line":13},{"name":"method GET","result":{"duration":1927299700,"status":"passed"},"match":{"location":"karate","arguments":[]},"keyword":"When","line":14,"doc_string":{"content_type":"","value":"19:08:01.668 request:\n1 > GET https:\/\/reqres.in\/api\/users?page=2&id=7\n1 > Accept-Encoding: gzip,deflate\n1 > Connection: Keep-Alive\n1 > Host: reqres.in\n1 > User-Agent: Apache-HttpClient\/4.5.12 (Java\/1.8.0_301)\n\n19:08:03.592 response time in milliseconds: 1909.46\n1 < 200\n1 < Access-Control-Allow-Origin: *\n1 < Age: 6000\n1 < CF-Cache-Status: HIT\n1 < CF-RAY: 6f8b66c95910719f-LHR\n1 < Cache-Control: max-age=14400\n1 < Connection: keep-alive\n1 < Content-Type: application\/json; charset=utf-8\n1 < Date: Fri, 08 Apr 2022 13:38:06 GMT\n1 < Etag: W\/\"11c-Esb3aX7LcoAMUKcF3i6bvWwxqls\"\n1 < Expect-CT: max-age=604800, report-uri=\"https:\/\/report-uri.cloudflare.com\/cdn-cgi\/beacon\/expect-ct\"\n1 < NEL: {\"success_fraction\":0,\"report_to\":\"cf-nel\",\"max_age\":604800}\n1 < Report-To: {\"endpoints\":[{\"url\":\"https:\\\/\\\/a.nel.cloudflare.com\\\/report\\\/v3?s=WGQX5N4Gjrt%2B7FspaJnJZiQxjZoZIREAPWKospWsLcJTFiEYg9DQsD9ATrzySn1zmIy1ZSlXT2AzIJytpYg%2Bwc1CyM%2BxFJl6C2Z0uCW8WmtXzC3HmLGMVRcw9dk%3D\"}],\"group\":\"cf-nel\",\"max_age\":604800}\n1 < Server: cloudflare\n1 < Transfer-Encoding: chunked\n1 < Vary: Accept-Encoding\n1 < Via: 1.1 vegur\n1 < X-Powered-By: Express\n1 < alt-svc: h3=\":443\"; ma=86400, h3-29=\":443\"; ma=86400\n{\"data\":{\"id\":7,\"email\":\"michael.lawson@reqres.in\",\"first_name\":\"Michael\",\"last_name\":\"Lawson\",\"avatar\":\"https:\/\/reqres.in\/img\/faces\/7-image.jpg\"},\"support\":{\"url\":\"https:\/\/reqres.in\/#support-heading\",\"text\":\"To keep ReqRes free, contributions towards server costs are appreciated!\"}}","line":14}},{"name":"print response","result":{"duration":3558400,"status":"passed"},"match":{"location":"karate","arguments":[]},"keyword":"Then","line":15,"doc_string":{"content_type":"","value":"19:08:03.595 [print] {\n  \"data\": {\n    \"last_name\": \"Lawson\",\n    \"id\": 7,\n    \"avatar\": \"https:\/\/reqres.in\/img\/faces\/7-image.jpg\",\n    \"first_name\": \"Michael\",\n    \"email\": \"michael.lawson@reqres.in\"\n  },\n  \"support\": {\n    \"text\": \"To keep ReqRes free, contributions towards server costs are appreciated!\",\n    \"url\": \"https:\/\/reqres.in\/#support-heading\"\n  }\n}","line":15}}]},{"line":17,"name":"single user not found","description":"","id":"single-user-not-found","type":"scenario","keyword":"Scenario","steps":[{"name":"url baseUrl+'\/api\/users'","result":{"duration":926200,"status":"passed"},"match":{"location":"karate","arguments":[]},"keyword":"Given","line":18},{"name":"path '23'","result":{"duration":6663600,"status":"passed"},"match":{"location":"karate","arguments":[]},"keyword":"And","line":19},{"name":"method GET","result":{"duration":1852709600,"status":"passed"},"match":{"location":"karate","arguments":[]},"keyword":"When","line":20,"doc_string":{"content_type":"","value":"19:08:03.621 request:\n1 > GET https:\/\/reqres.in\/api\/users\/23\n1 > Accept-Encoding: gzip,deflate\n1 > Connection: Keep-Alive\n1 > Host: reqres.in\n1 > User-Agent: Apache-HttpClient\/4.5.12 (Java\/1.8.0_301)\n\n19:08:05.470 response time in milliseconds: 1847.89\n1 < 404\n1 < Access-Control-Allow-Origin: *\n1 < Age: 67\n1 < CF-Cache-Status: HIT\n1 < CF-RAY: 6f8b66d659ba7795-LHR\n1 < Cache-Control: max-age=14400\n1 < Connection: keep-alive\n1 < Content-Length: 2\n1 < Content-Type: application\/json; charset=utf-8\n1 < Date: Fri, 08 Apr 2022 13:38:09 GMT\n1 < Etag: W\/\"2-vyGp6PvFo4RvsFtPoIWeCReyIC8\"\n1 < Expect-CT: max-age=604800, report-uri=\"https:\/\/report-uri.cloudflare.com\/cdn-cgi\/beacon\/expect-ct\"\n1 < NEL: {\"success_fraction\":0,\"report_to\":\"cf-nel\",\"max_age\":604800}\n1 < Report-To: {\"endpoints\":[{\"url\":\"https:\\\/\\\/a.nel.cloudflare.com\\\/report\\\/v3?s=F%2F6eaZ2GiRwEAJXXOm2j63xlzz4qHnPFpuEX0fgy4YGLo637dGu4d%2BBDE%2FY78toGpI5VO7I1sB46VYbOY%2BX7XimXaphZgB%2B7LG%2BY4vo5egf65Kml%2FwlgzKyrEjs%3D\"}],\"group\":\"cf-nel\",\"max_age\":604800}\n1 < Server: cloudflare\n1 < Vary: Accept-Encoding\n1 < Via: 1.1 vegur\n1 < X-Powered-By: Express\n1 < alt-svc: h3=\":443\"; ma=86400, h3-29=\":443\"; ma=86400\n{}","line":20}},{"name":"status 404","result":{"duration":33700,"status":"passed"},"match":{"location":"karate","arguments":[]},"keyword":"Then","line":21}]},{"line":23,"name":"pass user request with headers","description":"","id":"pass-user-request-with-headers","type":"scenario","keyword":"Scenario","steps":[{"name":"configure headers = {Host: '<calculated when request is sent>', User-Agent: 'PostmanRuntime\/7.29.0', Accept: '*\/*', Accept-Encoding: 'gzip, deflate, br', Connection: 'keep-alive'}","result":{"duration":557800,"status":"passed"},"match":{"location":"karate","arguments":[]},"keyword":"*","line":24},{"name":"url baseUrl+'\/api\/users'","result":{"duration":1663500,"status":"passed"},"match":{"location":"karate","arguments":[]},"keyword":"Given","line":25},{"name":"param page = 2","result":{"duration":395300,"status":"passed"},"match":{"location":"karate","arguments":[]},"keyword":"And","line":26},{"name":"method GET","result":{"duration":1543420500,"status":"passed"},"match":{"location":"karate","arguments":[]},"keyword":"When","line":27,"doc_string":{"content_type":"","value":"19:08:05.487 request:\n1 > GET https:\/\/reqres.in\/api\/users?page=2\n1 > Accept: *\/*\n1 > Accept-Encoding: gzip, deflate, br\n1 > Connection: keep-alive\n1 > Host: <calculated when request is sent>\n1 > User-Agent: PostmanRuntime\/7.29.0\n\n19:08:07.010 response time in milliseconds: 1518.00\n1 < 400\n1 < CF-RAY: -\n1 < Connection: close\n1 < Content-Length: 155\n1 < Content-Type: text\/html\n1 < Date: Fri, 08 Apr 2022 13:38:10 GMT\n1 < Server: cloudflare\n<html>\r\n<head><title>400 Bad Request<\/title><\/head>\r\n<body>\r\n<center><h1>400 Bad Request<\/h1><\/center>\r\n<hr><center>cloudflare<\/center>\r\n<\/body>\r\n<\/html>\r\n\n\n19:08:07.028 xml parsing failed, response data type set to string: org.xml.sax.SAXParseException; lineNumber: 6; columnNumber: 3; The element type \"hr\" must be terminated by the matching end-tag \"<\/hr>\".","line":27}},{"name":"print response","result":{"duration":272900,"status":"passed"},"match":{"location":"karate","arguments":[]},"keyword":"Then","line":28,"doc_string":{"content_type":"","value":"19:08:07.028 [print] <html>\r\n<head><title>400 Bad Request<\/title><\/head>\r\n<body>\r\n<center><h1>400 Bad Request<\/h1><\/center>\r\n<hr><center>cloudflare<\/center>\r\n<\/body>\r\n<\/html>","line":28}}]}],"name":"src\/test\/java\/features\/GetApiKarate.feature","description":"API call testing feature","id":"api-call-testing-feature","keyword":"Feature","uri":"src\/test\/java\/features\/GetApiKarate.feature"}]